[
    {
        "id": "de8b9d31f4506ada",
        "type": "tab",
        "label": "Analog Input Demo",
        "disabled": false,
        "info": "",
        "env": []
    },
    {
        "id": "e73dfc1379a8238c",
        "type": "analog",
        "z": "de8b9d31f4506ada",
        "name": "",
        "port": "0G",
        "scale": "voltage",
        "fsr": "4.096",
        "dr": "128",
        "x": 370,
        "y": 120,
        "wires": [
            [
                "d021499e02e3e527",
                "58137c07f76d46e1"
            ]
        ]
    },
    {
        "id": "54bd74495c184f4a",
        "type": "inject",
        "z": "de8b9d31f4506ada",
        "name": "Click Here to Start",
        "props": [
            {
                "p": "payload"
            },
            {
                "p": "topic",
                "vt": "str"
            }
        ],
        "repeat": "",
        "crontab": "",
        "once": false,
        "onceDelay": 0.1,
        "topic": "",
        "payloadType": "date",
        "x": 150,
        "y": 120,
        "wires": [
            [
                "e73dfc1379a8238c"
            ]
        ]
    },
    {
        "id": "d021499e02e3e527",
        "type": "debug",
        "z": "de8b9d31f4506ada",
        "name": "AIN0 Volts",
        "active": true,
        "tosidebar": false,
        "console": false,
        "tostatus": true,
        "complete": "payload",
        "targetType": "msg",
        "statusVal": "payload",
        "statusType": "auto",
        "x": 570,
        "y": 120,
        "wires": []
    },
    {
        "id": "58137c07f76d46e1",
        "type": "analog",
        "z": "de8b9d31f4506ada",
        "name": "",
        "port": "0G",
        "scale": "millivolt",
        "fsr": "4.096",
        "dr": "128",
        "x": 370,
        "y": 180,
        "wires": [
            [
                "fbb48dc6811be533",
                "132d288226c2ddcc"
            ]
        ]
    },
    {
        "id": "fbb48dc6811be533",
        "type": "analog",
        "z": "de8b9d31f4506ada",
        "name": "",
        "port": "0G",
        "scale": "fraction",
        "fsr": "4.096",
        "dr": "128",
        "x": 370,
        "y": 240,
        "wires": [
            [
                "72e389338d65af60",
                "a9b33a88d5a50598"
            ]
        ]
    },
    {
        "id": "72e389338d65af60",
        "type": "analog",
        "z": "de8b9d31f4506ada",
        "name": "",
        "port": "0G",
        "scale": "percentage",
        "fsr": "4.096",
        "dr": "128",
        "x": 370,
        "y": 300,
        "wires": [
            [
                "acb46510d027c35f",
                "3ca8ea8deac29560"
            ]
        ]
    },
    {
        "id": "acb46510d027c35f",
        "type": "analog",
        "z": "de8b9d31f4506ada",
        "name": "",
        "port": "0G",
        "scale": "counts",
        "fsr": "4.096",
        "dr": "128",
        "x": 370,
        "y": 360,
        "wires": [
            [
                "63e33ba71d6cf621",
                "2979a0eb9ef9a0fa"
            ]
        ]
    },
    {
        "id": "132d288226c2ddcc",
        "type": "debug",
        "z": "de8b9d31f4506ada",
        "name": "AIN0 Millivolts",
        "active": true,
        "tosidebar": false,
        "console": false,
        "tostatus": true,
        "complete": "payload",
        "targetType": "msg",
        "statusVal": "payload",
        "statusType": "auto",
        "x": 580,
        "y": 180,
        "wires": []
    },
    {
        "id": "a9b33a88d5a50598",
        "type": "debug",
        "z": "de8b9d31f4506ada",
        "name": "AIN0 Fraction of Full Scale 0.0 to 1.0",
        "active": true,
        "tosidebar": false,
        "console": false,
        "tostatus": true,
        "complete": "payload",
        "targetType": "msg",
        "statusVal": "payload",
        "statusType": "auto",
        "x": 650,
        "y": 240,
        "wires": []
    },
    {
        "id": "3ca8ea8deac29560",
        "type": "debug",
        "z": "de8b9d31f4506ada",
        "name": "AIN0 Percent of Full Scale",
        "active": true,
        "tosidebar": false,
        "console": false,
        "tostatus": true,
        "complete": "payload",
        "targetType": "msg",
        "statusVal": "payload",
        "statusType": "auto",
        "x": 620,
        "y": 300,
        "wires": []
    },
    {
        "id": "63e33ba71d6cf621",
        "type": "debug",
        "z": "de8b9d31f4506ada",
        "name": "AIN0 Raw Counts",
        "active": true,
        "tosidebar": false,
        "console": false,
        "tostatus": true,
        "complete": "payload",
        "targetType": "msg",
        "statusVal": "payload",
        "statusType": "auto",
        "x": 590,
        "y": 360,
        "wires": []
    },
    {
        "id": "d03a1a109c5f0f91",
        "type": "debug",
        "z": "de8b9d31f4506ada",
        "name": "AIN1 Volts",
        "active": true,
        "tosidebar": false,
        "console": false,
        "tostatus": true,
        "complete": "payload",
        "targetType": "msg",
        "statusVal": "payload",
        "statusType": "auto",
        "x": 570,
        "y": 420,
        "wires": []
    },
    {
        "id": "4de5d64cedebde91",
        "type": "debug",
        "z": "de8b9d31f4506ada",
        "name": "AIN2 Volts",
        "active": true,
        "tosidebar": false,
        "console": false,
        "tostatus": true,
        "complete": "payload",
        "targetType": "msg",
        "statusVal": "payload",
        "statusType": "auto",
        "x": 570,
        "y": 480,
        "wires": []
    },
    {
        "id": "4f17a628a759c7c4",
        "type": "debug",
        "z": "de8b9d31f4506ada",
        "name": "AIN3 Volts",
        "active": true,
        "tosidebar": false,
        "console": false,
        "tostatus": true,
        "complete": "payload",
        "targetType": "msg",
        "statusVal": "payload",
        "statusType": "auto",
        "x": 570,
        "y": 540,
        "wires": []
    },
    {
        "id": "2979a0eb9ef9a0fa",
        "type": "analog",
        "z": "de8b9d31f4506ada",
        "name": "",
        "port": "1G",
        "scale": "voltage",
        "fsr": "4.096",
        "dr": "128",
        "x": 370,
        "y": 420,
        "wires": [
            [
                "ec206cfd189b78ca",
                "d03a1a109c5f0f91"
            ]
        ]
    },
    {
        "id": "ec206cfd189b78ca",
        "type": "analog",
        "z": "de8b9d31f4506ada",
        "name": "",
        "port": "2G",
        "scale": "voltage",
        "fsr": "4.096",
        "dr": "128",
        "x": 370,
        "y": 480,
        "wires": [
            [
                "39fec2424cc2e73e",
                "4de5d64cedebde91"
            ]
        ]
    },
    {
        "id": "39fec2424cc2e73e",
        "type": "analog",
        "z": "de8b9d31f4506ada",
        "name": "",
        "port": "3G",
        "scale": "voltage",
        "fsr": "4.096",
        "dr": "128",
        "x": 370,
        "y": 540,
        "wires": [
            [
                "4f17a628a759c7c4",
                "ee3376658839697a"
            ]
        ]
    },
    {
        "id": "e085598f3bc765c2",
        "type": "comment",
        "z": "de8b9d31f4506ada",
        "name": "Never connect an input signal over 3.6 volts or under -0.3 volts to any input of the Sense Hat!",
        "info": "",
        "x": 360,
        "y": 40,
        "wires": []
    },
    {
        "id": "3c887d9ac4817eb3",
        "type": "comment",
        "z": "de8b9d31f4506ada",
        "name": "Full Scale set to 4.096 volts unless otherwise noted..",
        "info": "",
        "x": 230,
        "y": 80,
        "wires": []
    },
    {
        "id": "ee3376658839697a",
        "type": "analog",
        "z": "de8b9d31f4506ada",
        "name": "",
        "port": "0G",
        "scale": "voltage",
        "fsr": "2.048",
        "dr": "128",
        "x": 370,
        "y": 600,
        "wires": [
            [
                "87ed20cd5e9b1cb2",
                "56505311f9d56771"
            ]
        ]
    },
    {
        "id": "56505311f9d56771",
        "type": "analog",
        "z": "de8b9d31f4506ada",
        "name": "",
        "port": "0G",
        "scale": "voltage",
        "fsr": "1.024",
        "dr": "128",
        "x": 370,
        "y": 660,
        "wires": [
            [
                "0c6faecd1435d5a9"
            ]
        ]
    },
    {
        "id": "87ed20cd5e9b1cb2",
        "type": "debug",
        "z": "de8b9d31f4506ada",
        "name": "AIN0 Full Scale 2.048 volts",
        "active": true,
        "tosidebar": false,
        "console": false,
        "tostatus": true,
        "complete": "payload",
        "targetType": "msg",
        "statusVal": "payload",
        "statusType": "auto",
        "x": 620,
        "y": 600,
        "wires": []
    },
    {
        "id": "0c6faecd1435d5a9",
        "type": "debug",
        "z": "de8b9d31f4506ada",
        "name": "AIN0 Full Scale 1.024 volts",
        "active": true,
        "tosidebar": false,
        "console": false,
        "tostatus": true,
        "complete": "payload",
        "targetType": "msg",
        "statusVal": "payload",
        "statusType": "auto",
        "x": 620,
        "y": 660,
        "wires": []
    },
    {
        "id": "38986730a837e3f2",
        "type": "comment",
        "z": "de8b9d31f4506ada",
        "name": "Demonstrating different scales using input AIN0.",
        "info": "",
        "x": 1000,
        "y": 120,
        "wires": []
    },
    {
        "id": "2e42ccb99170828a",
        "type": "comment",
        "z": "de8b9d31f4506ada",
        "name": "Demonstrating there are four inputs AIN0 thru AIN3.",
        "info": "",
        "x": 1010,
        "y": 420,
        "wires": []
    },
    {
        "id": "ef456f1d57c4a862",
        "type": "comment",
        "z": "de8b9d31f4506ada",
        "name": "Demonstrating full scale range options.",
        "info": "",
        "x": 970,
        "y": 600,
        "wires": []
    }
]