[
    {
        "id": "8cc923da87bb4e3a",
        "type": "tab",
        "label": "Light Gain Time Demo",
        "disabled": false,
        "info": "",
        "env": []
    },
    {
        "id": "10d9f5e728eb72c7",
        "type": "inject",
        "z": "8cc923da87bb4e3a",
        "name": "Click Here to Start",
        "props": [
            {
                "p": "payload"
            },
            {
                "p": "topic",
                "vt": "str"
            }
        ],
        "repeat": "",
        "crontab": "",
        "once": false,
        "onceDelay": 0.1,
        "topic": "",
        "payloadType": "date",
        "x": 130,
        "y": 40,
        "wires": [
            [
                "f3388d63222709c5"
            ]
        ]
    },
    {
        "id": "c7f1272b22636d5f",
        "type": "debug",
        "z": "8cc923da87bb4e3a",
        "name": "Clear Counts Time 2.4 ms",
        "active": true,
        "tosidebar": false,
        "console": false,
        "tostatus": true,
        "complete": "payload",
        "targetType": "msg",
        "statusVal": "payload",
        "statusType": "auto",
        "x": 550,
        "y": 40,
        "wires": []
    },
    {
        "id": "f3388d63222709c5",
        "type": "lightsensor",
        "z": "8cc923da87bb4e3a",
        "name": "",
        "mode": "cdata",
        "scale": "lux",
        "gain": "60",
        "time": "2.4",
        "x": 330,
        "y": 40,
        "wires": [
            [
                "c7f1272b22636d5f",
                "464bb248245b3396"
            ]
        ]
    },
    {
        "id": "464bb248245b3396",
        "type": "lightsensor",
        "z": "8cc923da87bb4e3a",
        "name": "",
        "mode": "cdata",
        "scale": "lux",
        "gain": "60",
        "time": "50",
        "x": 330,
        "y": 100,
        "wires": [
            [
                "6ae16697e7c22af7",
                "6a8035a0fadb85b6"
            ]
        ]
    },
    {
        "id": "6ae16697e7c22af7",
        "type": "lightsensor",
        "z": "8cc923da87bb4e3a",
        "name": "",
        "mode": "cdata",
        "scale": "lux",
        "gain": "60",
        "time": "150",
        "x": 330,
        "y": 160,
        "wires": [
            [
                "12ecf3594b598eb9",
                "b87edbf7815e19d3"
            ]
        ]
    },
    {
        "id": "12ecf3594b598eb9",
        "type": "lightsensor",
        "z": "8cc923da87bb4e3a",
        "name": "",
        "mode": "cdata",
        "scale": "lux",
        "gain": "60",
        "time": "250",
        "x": 330,
        "y": 220,
        "wires": [
            [
                "56e76f18f78b7039",
                "4602deb6e99aa692"
            ]
        ]
    },
    {
        "id": "56e76f18f78b7039",
        "type": "lightsensor",
        "z": "8cc923da87bb4e3a",
        "name": "",
        "mode": "cdata",
        "scale": "lux",
        "gain": "60",
        "time": "400",
        "x": 330,
        "y": 280,
        "wires": [
            [
                "dab4bc5227d2470f",
                "fe90b9642c975d58"
            ]
        ]
    },
    {
        "id": "6a8035a0fadb85b6",
        "type": "debug",
        "z": "8cc923da87bb4e3a",
        "name": "Clear Counts Time 50 ms",
        "active": true,
        "tosidebar": false,
        "console": false,
        "tostatus": true,
        "complete": "payload",
        "targetType": "msg",
        "statusVal": "payload",
        "statusType": "auto",
        "x": 550,
        "y": 100,
        "wires": []
    },
    {
        "id": "b87edbf7815e19d3",
        "type": "debug",
        "z": "8cc923da87bb4e3a",
        "name": "Clear Counts Time 150 ms",
        "active": true,
        "tosidebar": false,
        "console": false,
        "tostatus": true,
        "complete": "payload",
        "targetType": "msg",
        "statusVal": "payload",
        "statusType": "auto",
        "x": 560,
        "y": 160,
        "wires": []
    },
    {
        "id": "4602deb6e99aa692",
        "type": "debug",
        "z": "8cc923da87bb4e3a",
        "name": "Clear Counts Time 250 ms",
        "active": true,
        "tosidebar": false,
        "console": false,
        "tostatus": true,
        "complete": "payload",
        "targetType": "msg",
        "statusVal": "payload",
        "statusType": "auto",
        "x": 560,
        "y": 220,
        "wires": []
    },
    {
        "id": "fe90b9642c975d58",
        "type": "debug",
        "z": "8cc923da87bb4e3a",
        "name": "Clear Counts Time 400 ms",
        "active": true,
        "tosidebar": false,
        "console": false,
        "tostatus": true,
        "complete": "payload",
        "targetType": "msg",
        "statusVal": "payload",
        "statusType": "auto",
        "x": 560,
        "y": 280,
        "wires": []
    },
    {
        "id": "d5c0abb5d2d8228c",
        "type": "debug",
        "z": "8cc923da87bb4e3a",
        "name": "Clear Counts Time 600 ms",
        "active": true,
        "tosidebar": false,
        "console": false,
        "tostatus": true,
        "complete": "payload",
        "targetType": "msg",
        "statusVal": "payload",
        "statusType": "auto",
        "x": 560,
        "y": 340,
        "wires": []
    },
    {
        "id": "dab4bc5227d2470f",
        "type": "lightsensor",
        "z": "8cc923da87bb4e3a",
        "name": "",
        "mode": "cdata",
        "scale": "lux",
        "gain": "60",
        "time": "600",
        "x": 330,
        "y": 340,
        "wires": [
            [
                "d5c0abb5d2d8228c",
                "e85049b82fa1cbd4"
            ]
        ]
    },
    {
        "id": "2809d76e422cce28",
        "type": "lightsensor",
        "z": "8cc923da87bb4e3a",
        "name": "",
        "mode": "cdata",
        "scale": "lux",
        "gain": "60",
        "time": "50",
        "x": 330,
        "y": 640,
        "wires": [
            [
                "bce7d8cbd026c3a9"
            ]
        ]
    },
    {
        "id": "e85049b82fa1cbd4",
        "type": "lightsensor",
        "z": "8cc923da87bb4e3a",
        "name": "",
        "mode": "cdata",
        "scale": "lux",
        "gain": "1",
        "time": "50",
        "x": 330,
        "y": 460,
        "wires": [
            [
                "660cde91d1f38571",
                "a9f496c2fd9272ca"
            ]
        ]
    },
    {
        "id": "660cde91d1f38571",
        "type": "lightsensor",
        "z": "8cc923da87bb4e3a",
        "name": "",
        "mode": "cdata",
        "scale": "lux",
        "gain": "4",
        "time": "50",
        "x": 330,
        "y": 520,
        "wires": [
            [
                "7835544f377f9cd5",
                "f9b014bc72773aa0"
            ]
        ]
    },
    {
        "id": "7835544f377f9cd5",
        "type": "lightsensor",
        "z": "8cc923da87bb4e3a",
        "name": "",
        "mode": "cdata",
        "scale": "lux",
        "gain": "16",
        "time": "50",
        "x": 330,
        "y": 580,
        "wires": [
            [
                "2809d76e422cce28",
                "2d7b7c370b720749"
            ]
        ]
    },
    {
        "id": "a9f496c2fd9272ca",
        "type": "debug",
        "z": "8cc923da87bb4e3a",
        "name": "Clear Counts Gain 1 x",
        "active": true,
        "tosidebar": false,
        "console": false,
        "tostatus": true,
        "complete": "payload",
        "targetType": "msg",
        "statusVal": "payload",
        "statusType": "auto",
        "x": 540,
        "y": 460,
        "wires": []
    },
    {
        "id": "f9b014bc72773aa0",
        "type": "debug",
        "z": "8cc923da87bb4e3a",
        "name": "Clear Counts Gain 4 x",
        "active": true,
        "tosidebar": false,
        "console": false,
        "tostatus": true,
        "complete": "payload",
        "targetType": "msg",
        "statusVal": "payload",
        "statusType": "auto",
        "x": 540,
        "y": 520,
        "wires": []
    },
    {
        "id": "2d7b7c370b720749",
        "type": "debug",
        "z": "8cc923da87bb4e3a",
        "name": "Clear Counts Gain 16 x",
        "active": true,
        "tosidebar": false,
        "console": false,
        "tostatus": true,
        "complete": "payload",
        "targetType": "msg",
        "statusVal": "payload",
        "statusType": "auto",
        "x": 550,
        "y": 580,
        "wires": []
    },
    {
        "id": "bce7d8cbd026c3a9",
        "type": "debug",
        "z": "8cc923da87bb4e3a",
        "name": "Clear Counts Gain 60 x",
        "active": true,
        "tosidebar": false,
        "console": false,
        "tostatus": true,
        "complete": "payload",
        "targetType": "msg",
        "statusVal": "payload",
        "statusType": "auto",
        "x": 550,
        "y": 640,
        "wires": []
    },
    {
        "id": "89ba256be0505d5a",
        "type": "comment",
        "z": "8cc923da87bb4e3a",
        "name": "Times are all 60 x gain, good for dim office.",
        "info": "",
        "x": 840,
        "y": 40,
        "wires": []
    },
    {
        "id": "3c19e96ca2e9274b",
        "type": "comment",
        "z": "8cc923da87bb4e3a",
        "name": "Gains are all 50 ms time, good for dim office.",
        "info": "",
        "x": 830,
        "y": 460,
        "wires": []
    }
]